<?xml version="1.0" encoding="UTF-8"?>
<session version="1.0">
<refactoring comment="Move 2 elements to &apos;PetShop/src/br.senai.sp.informatica.oop&apos;&#x0D;&#x0A;- Original project: &apos;Pessoa&apos;&#x0D;&#x0A;- Destination element: &apos;PetShop/src/br.senai.sp.informatica.oop&apos;&#x0D;&#x0A;- Original elements:&#x0D;&#x0A;     PessoaTest.java&#x0D;&#x0A;     Pessoa.java&#x0D;&#x0A;- Update references to refactored element" description="Move compilation units" destination="=PetShop/src&lt;br.senai.sp.informatica.oop" element1="/src&lt;{PessoaTest.java" element2="/src&lt;{Pessoa.java" files="0" flags="589830" folders="0" id="org.eclipse.jdt.ui.move" policy="org.eclipse.jdt.ui.moveResources" qualified="false" references="true" stamp="1503408435544" units="2" version="1.0"/>
</session>